Uber analysis
…
Plotting trips during every day of the month

# Aggregate data by day of the month 
day_data <- df %>% group_by(day) %>% dplyr::summarize(Trips = n())
day_data

# A tibble: 31 × 2
   day    Trips
   <fct>  <int>
 1 1     127430
 2 2     143201
 3 3     142983
 4 4     140923
 5 5     147054
 6 6     139886
 7 7     143503
 8 8     145984
 9 9     155135
10 10    152500
# ℹ 21 more rows
…
Most trips are recorded on the 30th day of the month.

##select the color vector
colors = c("#CC1011", "#665555", "#05a399", "#cfcaca", "#f5e840", "#0683c9", "#e075b0")

# Collect data by day of the week and month
day_month_data <- df %>% group_by(dayofweek, month) %>% dplyr::summarize(Trips = n())

`summarise()` has grouped output by 'dayofweek'. You can override using the
`.groups` argument.

day_month_data

# A tibble: 42 × 3
# Groups:   dayofweek [7]
   dayofweek month  Trips
   <ord>     <ord>  <int>
 1 Sun       Apr    51251
 2 Sun       May    56168
 3 Sun       Jun    79656
 4 Sun       Jul    76327
 5 Sun       Aug   110246
 6 Sun       Sep   116532
 7 Mon       Apr    60861
 8 Mon       May    63846
 9 Mon       Jun    94655
10 Mon       Jul    93189
# ℹ 32 more rows
…
Heatmap by day and month

# Collect data by month and day
month_day_data <- df %>% group_by(month, day) %>% dplyr::summarize(Trips = n())

`summarise()` has grouped output by 'month'. You can override using the
`.groups` argument.

month_day_data

# A tibble: 183 × 3
# Groups:   month [6]
   month day   Trips
   <ord> <fct> <int>
 1 Apr   1     14546
 2 Apr   2     17474
 3 Apr   3     20701
 4 Apr   4     26714
 5 Apr   5     19521
 6 Apr   6     13445
 7 Apr   7     19550
 8 Apr   8     16188
 9 Apr   9     16843
10 Apr   10    20041
# ℹ 173 more rows
…
